Getting started with dkanr
…
Some data files may be directly queried through the API. Only data files that have been imported into the DKAN datastore can be queried through the API.

First, you’ll need to check if the data file you are interested in is available from the DKAN datastore

ds_is_available(metadata_rs)

## [1] TRUE

If this is the case, you’ll be able to retrieve data directly from the datastore. In order to do so, you’ll have to use the resource UUID (Just another unique ID number)

ds_search_all(resource_id = metadata_rs$uuid, as = 'df') %>%
  select(PERMITNUMBER, PERMITTYPE, STATUS, SQUAREFEET)

## # A tibble: 100 x 4
##    PERMITNUMBER PERMITTYPE      STATUS SQUAREFEET
##    <chr>        <chr>           <chr>  <chr>     
##  1 54912        Building Permit Issued 842       
##  2 106485       Building Permit Issued 1300      
##  3 107817       Building Permit Issued 487       
##  4 113132       Building Permit Issued 3256      
##  5 110301       Building Permit Issued 400       
##  6 115478       Building Permit Issued 2938      
##  7 281965       Building Permit Issued 1050      
##  8 281380       Building Permit Issued 360       
##  9 283077       Building Permit Issued 1225      
## 10 278714       Building Permit Issued 14710     
## # ... with 90 more rows
